{"name":"getUsers","id":"SerenityInitialTest:getUsers","testCaseName":"SerenityInitialTest","testSteps":[{"number":1,"description":"The tester get users","duration":108,"startTime":"2020-10-10T17:20:08.972-03:00[America/Buenos_Aires]","result":"SUCCESS","precondition":false,"level":0,"children":[{"number":2,"description":"The tester executes a GET on the resource users?page\u003d1","duration":88,"startTime":"2020-10-10T17:20:08.992-03:00[America/Buenos_Aires]","result":"SUCCESS","precondition":false,"level":1,"children":[{"number":3,"description":"GET http://localhost:5000/api/users?page\u003d1\r","duration":1,"startTime":"2020-10-10T17:20:09.079-03:00[America/Buenos_Aires]","result":"SUCCESS","restQuery":{"method":"GET","path":"http://localhost:5000/api/users?page\u003d1\r","content":"\r","contentType":"application/json","requestHeaders":"header1\u003dvalue1\r\n\t\t\t\tAccept\u003d*/*\r\n\t\t\t\tContent-Type\u003dapplication/json; charset\u003dUTF-8\r","requestCookies":"\r","responseHeaders":"X-Powered-By: Express\r\nAccess-Control-Allow-Origin: *\r\nContent-Type: application/json; charset\u003dutf-8\r\nContent-Length: 539\r\nETag: W/\"21b-fFOA+z2p0qqZtiTcYG5d6jtK5Cs\"\r\nDate: Sat, 10 Oct 2020 20:20:09 GMT\r\nConnection: keep-alive\r","responseCookies":"\r","responseBody":"{\n    \"page\": 1,\n    \"per_page\": 3,\n    \"total\": 12,\n    \"total_pages\": 4,\n    \"data\": [\n        {\n            \"id\": 1,\n            \"email\": \"george.bluth@reqres.in\",\n            \"first_name\": \"George\",\n            \"last_name\": \"Bluth\",\n            \"avatar\": \"https://s3.amazonaws.com/uifaces/faces/twitter/calebogden/128.jpg\"\n        },\n        {\n            \"id\": 2,\n            \"email\": \"janet.weaver@reqres.in\",\n            \"first_name\": \"Janet\",\n            \"last_name\": \"Weaver\",\n            \"avatar\": \"https://s3.amazonaws.com/uifaces/faces/twitter/josephstein/128.jpg\"\n        },\n        {\n            \"id\": 3,\n            \"email\": \"emma.wong@reqres.in\",\n            \"first_name\": \"Emma\",\n            \"last_name\": \"Wong\",\n            \"avatar\": \"https://s3.amazonaws.com/uifaces/faces/twitter/olegpogodaev/128.jpg\"\n        }\n    ]\n}","statusCode":200},"precondition":false,"level":2}]}]},{"number":4,"description":"Then el codigo de respuesta: should be (200)","duration":1,"startTime":"2020-10-10T17:20:09.083-03:00[America/Buenos_Aires]","result":"SUCCESS","precondition":false,"level":0},{"number":5,"description":"Then usuario no es nulo should be not null","duration":1,"startTime":"2020-10-10T17:20:09.129-03:00[America/Buenos_Aires]","result":"SUCCESS","precondition":false,"level":0},{"number":6,"description":"Then el email del usuario: should be \u0027george.bluth@reqres.in\u0027","duration":2,"startTime":"2020-10-10T17:20:09.134-03:00[America/Buenos_Aires]","result":"SUCCESS","precondition":false,"level":0},{"number":7,"description":"Then el avatar del usuario: should be \u0027https://s3.amazonaws.com/uifaces/faces/twitter/calebogden/128.jpg\u0027","duration":1,"startTime":"2020-10-10T17:20:09.137-03:00[America/Buenos_Aires]","result":"SUCCESS","precondition":false,"level":0}],"userStory":{"id":"SerenityInitialTest","storyName":"Serenity initial test","storyClassName":"SerenityInitialTest","path":"","type":"story"},"featureTag":{"name":"Serenity initial test","type":"story","displayName":"Serenity initial test"},"title":"Get users","tags":[{"name":"Serenity initial test","type":"story","displayName":"Serenity initial test"}],"startTime":"2020-10-10T17:20:08.960-03:00[America/Buenos_Aires]","duration":180,"projectKey":"","manual":false,"testSource":"JUnit","actors":[{"name":"The tester","can":["call an API at http://localhost:5000/api/"]}],"result":"SUCCESS"}